// Jest Snapshot v1, https://goo.gl/fbAQLP

exports[`ZipCodeSearch should render ZipCodeSearch 1`] = `
ShallowWrapper {
  "complexSelector": ComplexSelector {
    "buildPredicate": [Function],
    "childrenOfNode": [Function],
    "findWhereUnwrapped": [Function],
  },
  "length": 1,
  "node": <div
    className="zip-search"
>
    <form
        onSubmit={[Function]}
    >
        <label
            htmlFor="zipSearch"
        >
            Zip Code
        </label>
        <input
            className="zip-search__zip"
            id="zipSearch"
            onChange={[Function]}
            pattern="^\\\\d{5}$"
            required={true}
            title="Five Digits"
            type="text"
        />
        <input
            className="zip-search__submit"
            type="submit"
            value="Search"
        />
    </form>
</div>,
  "nodes": Array [
    <div
      className="zip-search"
>
      <form
            onSubmit={[Function]}
      >
            <label
                  htmlFor="zipSearch"
            >
                  Zip Code
            </label>
            <input
                  className="zip-search__zip"
                  id="zipSearch"
                  onChange={[Function]}
                  pattern="^\\\\d{5}$"
                  required={true}
                  title="Five Digits"
                  type="text"
            />
            <input
                  className="zip-search__submit"
                  type="submit"
                  value="Search"
            />
      </form>
</div>,
  ],
  "options": Object {},
  "renderer": ReactShallowRenderer {
    "_instance": ShallowComponentWrapper {
      "_calledComponentWillUnmount": false,
      "_compositeType": 0,
      "_context": Object {},
      "_currentElement": <ZipCodeSearchComponent />,
      "_debugID": 1,
      "_hostContainerInfo": null,
      "_hostParent": null,
      "_instance": ZipCodeSearchComponent {
        "_reactInternalInstance": [Circular],
        "context": Object {},
        "handleSubmit": [Function],
        "props": Object {},
        "refs": Object {},
        "setZip": [Function],
        "sixDigitsRegEx": "^\\\\d{5}$",
        "state": Object {
          "zip": "",
        },
        "updater": Object {
          "enqueueCallback": [Function],
          "enqueueCallbackInternal": [Function],
          "enqueueElementInternal": [Function],
          "enqueueForceUpdate": [Function],
          "enqueueReplaceState": [Function],
          "enqueueSetState": [Function],
          "isMounted": [Function],
          "validateCallback": [Function],
        },
      },
      "_mountOrder": 1,
      "_pendingCallbacks": null,
      "_pendingElement": null,
      "_pendingForceUpdate": false,
      "_pendingReplaceState": false,
      "_pendingStateQueue": null,
      "_renderedComponent": NoopInternalComponent {
        "_currentElement": <div
          className="zip-search"
>
          <form
                    onSubmit={[Function]}
          >
                    <label
                              htmlFor="zipSearch"
                    >
                              Zip Code
                    </label>
                    <input
                              className="zip-search__zip"
                              id="zipSearch"
                              onChange={[Function]}
                              pattern="^\\\\d{5}$"
                              required={true}
                              title="Five Digits"
                              type="text"
                    />
                    <input
                              className="zip-search__submit"
                              type="submit"
                              value="Search"
                    />
          </form>
</div>,
        "_debugID": 2,
        "_renderedOutput": <div
          className="zip-search"
>
          <form
                    onSubmit={[Function]}
          >
                    <label
                              htmlFor="zipSearch"
                    >
                              Zip Code
                    </label>
                    <input
                              className="zip-search__zip"
                              id="zipSearch"
                              onChange={[Function]}
                              pattern="^\\\\d{5}$"
                              required={true}
                              title="Five Digits"
                              type="text"
                    />
                    <input
                              className="zip-search__submit"
                              type="submit"
                              value="Search"
                    />
          </form>
</div>,
      },
      "_renderedNodeType": 0,
      "_rootNodeID": 0,
      "_topLevelWrapper": null,
      "_updateBatchNumber": null,
      "_warnedAboutRefsInRender": false,
    },
    "getRenderOutput": [Function],
    "render": [Function],
  },
  "root": [Circular],
  "unrendered": <ZipCodeSearchComponent />,
}
`;
